Piglet Data Analysis
…
EEG.Group.Score <- EEG %>%
  group_by(Group, Time)%>%
  na.omit()%>%
  mutate(Minimum  =min(Score), Mean =  mean(Score), Median = median(Score), Max =  (Score), Standard.dev = sd(Score))

EEG.Group.M_AMP <- EEG %>%
  group_by(Group, Time)%>%
  na.omit()%>%
  mutate(Minimum  = (Min_L+Min_R)/2, Mean =  mean(M_AMP), Median = median(M_AMP), Max =  (Max_L+Max_R)/2, Standard.dev = sd(M_AMP))

print(EEG.Group.M_AMP)

## # A tibble: 282 x 26
## # Groups:   Group, Time [58]
##      Pig  Date Premature_death Sex   Group Litter Age_at_start Phase  Time
##    <dbl> <dbl> <lgl>           <chr> <fct>  <dbl>        <dbl> <chr> <dbl>
##  1  2334 43403 FALSE           MALE  HI+P~      1           12 HI        0
##  2  2335 43403 FALSE           FEMA~ HI+SC      1           12 HI        0
##  3  2343 43411 FALSE           MALE  HI+SC      2           12 HI        0
##  4  2344 43411 FALSE           MALE  HI+P~      2           14 HI        0
##  5  2350 43424 FALSE           MALE  HI+P~      3            6 HI        0
##  6  2351 43424 FALSE           MALE  HI+SC      3            6 HI        0
##  7  2368 43507 TRUE            MALE  HI+P~      4            1 HI        0
##  8  2374 43529 FALSE           MALE  HI+P~      6           21 HI        0
##  9  2380 43550 FALSE           MALE  HI+SC      7            9 HI        0
## 10  2407 43578 FALSE           FEMA~ HI+SC      8            5 HI        0
## # ... with 272 more rows, and 17 more variables: Max_L <dbl>, Min_L <dbl>,
## #   Amplitude_L <dbl>, Max_R <dbl>, Min_R <dbl>, Amplitude_R <dbl>,
## #   M_AMP <dbl>, Score <dbl>, SZ <chr>, BS <chr>, Temp_generated <dbl>,
## #   ...21 <chr>, Minimum <dbl>, Mean <dbl>, Median <dbl>, Max <dbl>,
## #   Standard.dev <dbl>

print(EEG.Group.Score)

## # A tibble: 282 x 26
## # Groups:   Group, Time [58]
##      Pig  Date Premature_death Sex   Group Litter Age_at_start Phase  Time
##    <dbl> <dbl> <lgl>           <chr> <fct>  <dbl>        <dbl> <chr> <dbl>
##  1  2334 43403 FALSE           MALE  HI+P~      1           12 HI        0
##  2  2335 43403 FALSE           FEMA~ HI+SC      1           12 HI        0
##  3  2343 43411 FALSE           MALE  HI+SC      2           12 HI        0
##  4  2344 43411 FALSE           MALE  HI+P~      2           14 HI        0
##  5  2350 43424 FALSE           MALE  HI+P~      3            6 HI        0
##  6  2351 43424 FALSE           MALE  HI+SC      3            6 HI        0
##  7  2368 43507 TRUE            MALE  HI+P~      4            1 HI        0
##  8  2374 43529 FALSE           MALE  HI+P~      6           21 HI        0
##  9  2380 43550 FALSE           MALE  HI+SC      7            9 HI        0
## 10  2407 43578 FALSE           FEMA~ HI+SC      8            5 HI        0
## # ... with 272 more rows, and 17 more variables: Max_L <dbl>, Min_L <dbl>,
## #   Amplitude_L <dbl>, Max_R <dbl>, Min_R <dbl>, Amplitude_R <dbl>,
## #   M_AMP <dbl>, Score <dbl>, SZ <chr>, BS <chr>, Temp_generated <dbl>,
## #   ...21 <chr>, Minimum <dbl>, Mean <dbl>, Median <dbl>, Max <dbl>,
## #   Standard.dev <dbl>
…
